2.8005079683548596E32
2.6651117036083024E32
2.569929333418516E32
2.5127578662169238E32
2.492302053667511E32
2.5080398376527353E32
2.5603602243557922E32
2.650433154388776E32
2.780337311675489E32
2.9526641326334103E32
