-3.150868602952945E10
-3.1493525356995983E10
-3.1478359056754253E10
-3.1463175807140682E10
-3.1447986948093395E10
-3.1432786819139507E10
-3.141756974297516E10
-3.140234708480363E10
-3.138710748089179E10
-3.1371862313268944E10
