-5.166519373913435E9
-5.480306029280306E9
-5.753819375425873E9
-5.985242746646045E9
-6.172686857127589E9
-6.314845676023098E9
-6.410671624112769E9
-6.459352477586649E9
-6.460524106561136E9
-6.414129741876507E9
