4.555746763266404E35
4.555561179855322E35
4.555380958357248E35
4.555205965867706E35
4.55503633466332E35
4.554872000019415E35
4.554712905073597E35
4.5545591700864164E35
4.55441068169128E35
4.554267552148678E35
