-1.4651111824763938E12
-1.4656821585800042E12
-1.4662488020383535E12
-1.4668115347467258E12
-1.4673699353203955E12
-1.4679242133141038E12
-1.4684745721342666E12
-1.469020599663699E12
-1.4695627024509321E12
-1.4701004745621743E12
