3.8513346900885124E10
3.842851344951546E10
3.834360367383123E10
3.8258554407935684E10
3.817342939214762E10
3.808819714708456E10
3.800282603340337E10
3.7917380032349754E10
3.783179557864707E10
3.77461368132419E10
