-6.705631057776342E10
-6.709579044422187E10
-6.713524846777953E10
-6.71747141124787E10
-6.721415791112081E10
-6.725359459228673E10
-6.729303887392634E10
-6.7332461304790955E10
-6.737189132234518E10
-6.741129948599051E10
