-3.2762522227304065E11
-3.2524150279978436E11
-3.228577600756552E11
-3.2047222063944495E11
-3.180866721866103E11
-3.1570023120366254E11
-3.133120128450241E11
-3.1092380680956476E11
-3.085338363085641E11
-3.0614389235121436E11
