8.878412847478848E33
8.878620933596011E33
8.879414242393561E33
8.880787804786475E33
8.882731013933769E33
8.885230727346344E33
8.88827073545846E33
8.891827518519237E33
8.895878783808101E33
8.900393021580085E33
