1.4674012322756341E35
1.467307434400193E35
1.4672163179003458E35
1.4671278156372497E35
1.4670419945634586E35
1.4669588220025908E35
1.466878269206843E35
1.466800397110941E35
1.4667251483285955E35
1.46665257977868E35
