1.8479550604468117E10
1.8486029399711662E10
1.8492181322008987E10
1.8498010886537594E10
1.8503513666931454E10
1.8508691830375946E10
1.8513547064023304E10
1.85180756835155E10
1.8522281016092026E10
1.8526159872321045E10
