1.8989744346926193E11
1.9263195764912662E11
1.9515821457533942E11
1.974754773860988E11
1.995796866489183E11
2.0146971434009528E11
2.031444119956616E11
2.046010970757538E11
2.0583972693830197E11
2.0685854932836646E11
