-8.190839357303186E10
-7.535452547725204E10
-6.872124686406842E10
-6.201079716640165E10
-5.523546945729254E10
-4.840013247218368E10
-4.1509629450359024E10
-3.457658014056174E10
-2.760332038077747E10
-2.0602585218057137E10
