5.2536753789653456E8
5.2852015251059586E8
5.316680946772729E8
5.348138170442844E8
5.379550848739156E8
5.410931965385338E8
5.442294538934386E8
5.473616543243287E8
5.504922821628865E8
5.536191515557555E8
