-6.398771935168558E9
-6.328614965275661E9
-6.251682754987166E9
-6.168004215129194E9
-6.07773728583572E9
-5.980956349915578E9
-5.877734753869538E9
-5.768271074204352E9
-5.652613277279785E9
-5.530985183470121E9
