-1.4776634738629011E12
-1.4762802832706047E12
-1.47489745259245E12
-1.4735139492399387E12
-1.4721308062090022E12
-1.470747507248841E12
-1.469363535875708E12
-1.4679799254350007E12
-1.4665956427559795E12
-1.4652117214164717E12
