-6.705631057776243E10
-6.70957904415781E10
-6.713524846249329E10
-6.717471410454864E10
-6.7214157900546776E10
-6.725359457906792E10
-6.72930388580609E10
-6.7332461286279205E10
-6.73718913011853E10
-6.741129946218272E10
